{
  "env":"testnet",
  "endpoints": {
    "signin":"https://api.testnet.glacier.fi/v1/signin",
    "withdraw":"https://api.testnet.glacier.fi/v1/withdraw",
    "deposit":"https://api.testnet.glacier.fi/v1/deposit",
    "off_chain_contract":"https://api.testnet.glacier.fi/v1/offchain-contract",
    "bank_account":"https://api.testnet.glacier.fi/v1/bankAccount",
    "thegraph":"https://api.thegraph.com/subgraphs/name/pavildon/factory-mumbai-tn"
  },
  "rpc": "http://localhost:8545",
  "scaner":"https://mumbai.polygonscan.com/tx",
  "magic_link_key": "pk_live_429C5316B6B32710",
  "token_life_seconds": 3600,
  "dev_mode": false,
  "native_token": "0x728b621e407cb1bdb0905d4b34077a681dd173bc",
  "btc_ratio": "0x6976caa7eec0bda8ca06dc17b4822ced69452c3e",
  "tokens": [
    {
      "id": "0x728b621e407cb1bdb0905d4b34077a681dd173bc",
      "name": "Glacier CLP",
      "display_name": "Peso Chileno",
      "sign": "$",
      "symbol": "GCLP",
      "display_symbol": "CLP",
      "decimals": 8,
      "ratio": "0x50447ead8e9fe8f6ae19065fe6d9b5f2f0886ce7",
      "format": {
        "maximumFractionDigits": 0 
      }
    },
    {
      "id": "0x2eaf76499abbf0d8676d20ebfdf9a69743def6bc",
      "name": "Glacier Ether",
      "display_name": "Ether",
      "sign": "Ξ",
      "symbol": "GETH",
      "display_symbol": "ETH",
      "decimals": 18,
      "ratio": "0x0f101dcf5ff2700dca8d32748b6e232c44d68b86",
      "format": {
        "minimumFractionDigits": 4,
        "maximumFractionDigits": 4
      }
    },
    {
      "id": "0xd8716b9fc131dc1d8d791f19cdd587bf808b54e3",
      "name": "USD Glacier",
      "display_name": "Dolar Americano",
      "sign": "$",
      "symbol": "GUSD",
      "display_symbol": "USD",
      "decimals": 8,
      "format": {
        "minimumFractionDigits": 2,
        "maximumFractionDigits": 2
      }
    }
  ]
}
