<svg width="100" height="100" viewBox="0 0 100 100" fill="none" xmlns="http://www.w3.org/2000/svg">
<g clip-path="url(#clip0_387_2696)">
<path d="M98.4978 62.0963C91.8197 88.8823 64.6884 105.182 37.8993 98.5042C11.1228 91.8261 -5.17879 64.6948 1.5009 37.9104C8.1759 11.1213 35.3056 -5.18189 62.0868 1.49625C88.8743 8.17438 105.174 35.3088 98.4962 62.0963H98.4978Z" fill="#F7931A"/>
<path d="M72.0469 42.8766C73.0406 36.2234 67.975 32.6469 61.0484 30.2609L63.2953 21.2484L57.8078 19.8813L55.6203 28.6563C54.1797 28.2969 52.6984 27.9578 51.2266 27.6219L53.4297 18.7891L47.9469 17.4219L45.6984 26.4313C44.5047 26.1594 43.3328 25.8906 42.1953 25.6078L42.2016 25.5797L34.6359 23.6906L33.1766 29.55C33.1766 29.55 37.2469 30.4828 37.1609 30.5406C39.3828 31.0953 39.7859 32.5656 39.7172 33.7312L37.1578 43.9984C37.3109 44.0375 37.5094 44.0937 37.7281 44.1812L37.15 44.0375L33.5609 58.4203C33.2891 59.0953 32.6 60.1078 31.0469 59.7234C31.1016 59.8031 27.0594 58.7281 27.0594 58.7281L24.3359 65.0094L31.4766 66.7891C32.8047 67.1219 34.1062 67.4703 35.3859 67.7984L33.1156 76.9156L38.5953 78.2828L40.8453 69.2641C42.3406 69.6703 43.7937 70.0453 45.2156 70.3984L42.975 79.375L48.4609 80.7422L50.7312 71.6438C60.0859 73.4141 67.1219 72.7 70.0797 64.2406C72.4656 57.4281 69.9625 53.4984 65.0406 50.9344C68.625 50.1047 71.325 47.7469 72.0453 42.8766H72.0469ZM59.5109 60.4531C57.8141 67.2656 46.3453 63.5844 42.625 62.6594L45.6375 50.5828C49.3563 51.5109 61.2797 53.3484 59.5125 60.4531H59.5109ZM61.2063 42.7781C59.6594 48.975 50.1125 45.8266 47.0141 45.0547L49.7453 34.1016C52.8438 34.8734 62.8188 36.3141 61.2063 42.7781V42.7781Z" fill="white"/>
</g>
<defs>
<clipPath id="clip0_387_2696">
<rect width="100" height="100" fill="white"/>
</clipPath>
</defs>
</svg>
