<svg width="100" height="100" viewBox="0 0 100 100" fill="none" xmlns="http://www.w3.org/2000/svg">
<path d="M50 100C77.7085 100 100 77.7085 100 50C100 22.2915 77.7085 0 50 0C22.2915 0 0 22.2915 0 50C0 77.7085 22.2915 100 50 100Z" fill="#2775CA"/>
<path d="M63.7485 57.9141C63.7485 50.6226 59.3735 48.1226 50.6235 47.0811C44.3735 46.2476 43.1235 44.5811 43.1235 41.6641C43.1235 38.7471 45.207 36.8726 49.3735 36.8726C53.1235 36.8726 55.207 38.1226 56.2485 41.2476C56.457 41.8726 57.082 42.2891 57.707 42.2891H61.04C61.8735 42.2891 62.4985 41.6641 62.4985 40.8311V40.6226C61.665 36.0391 57.915 32.4976 53.1235 32.0811V27.0811C53.1235 26.2476 52.4985 25.6226 51.457 25.4141H48.332C47.4985 25.4141 46.8735 26.0391 46.665 27.0811V31.8726C40.415 32.7061 36.457 36.8726 36.457 42.0811C36.457 48.9561 40.6235 51.6641 49.3735 52.7061C55.207 53.7476 57.082 54.9976 57.082 58.3311C57.082 61.6646 54.165 63.9561 50.207 63.9561C44.79 63.9561 42.915 61.6641 42.29 58.5391C42.082 57.7061 41.457 57.2891 40.832 57.2891H37.29C36.457 57.2891 35.832 57.9141 35.832 58.7476V58.9561C36.665 64.1641 39.9985 67.9141 46.8735 68.9561V73.9561C46.8735 74.7891 47.4985 75.4141 48.54 75.6226H51.665C52.4985 75.6226 53.1235 74.9976 53.332 73.9561V68.9561C59.582 67.9141 63.7485 63.5391 63.7485 57.9141V57.9141Z" fill="white"/>
<path d="M39.3752 79.79C23.1252 73.957 14.7917 55.832 20.8337 39.79C23.9587 31.04 30.8337 24.3735 39.3752 21.2485C40.2087 20.832 40.6252 20.207 40.6252 19.165V16.2485C40.6252 15.415 40.2087 14.79 39.3752 14.582C39.1667 14.582 38.7502 14.582 38.5417 14.79C18.7502 21.04 7.91666 42.082 14.1667 61.8735C17.9167 73.54 26.8752 82.4985 38.5417 86.2485C39.3752 86.665 40.2087 86.2485 40.4167 85.415C40.6252 85.207 40.6252 84.9985 40.6252 84.582V81.665C40.6252 81.04 40.0002 80.207 39.3752 79.79ZM61.4587 14.79C60.6252 14.3735 59.7917 14.79 59.5837 15.6235C59.3752 15.832 59.3752 16.04 59.3752 16.457V19.3735C59.3752 20.207 60.0002 21.04 60.6252 21.457C76.8752 27.29 85.2087 45.415 79.1667 61.457C76.0417 70.207 69.1667 76.8735 60.6252 79.9985C59.7917 80.415 59.3752 81.04 59.3752 82.082V84.9985C59.3752 85.832 59.7917 86.457 60.6252 86.665C60.8337 86.665 61.2502 86.665 61.4587 86.457C81.2502 80.207 92.0837 59.165 85.8337 39.3735C82.0837 27.4985 72.9167 18.54 61.4587 14.79V14.79Z" fill="white"/>
</svg>
