<svg width="22" height="24" viewBox="0 0 22 24" fill="none" xmlns="http://www.w3.org/2000/svg">
<path d="M11.4999 22.5C10.6562 22.5 9.99995 21.8438 9.99995 21H8.49995C8.49995 22.6875 9.81245 24 11.4999 24C13.1406 24 14.4999 22.6875 14.4999 21H12.9999C12.9999 21.8438 12.2968 22.5 11.4999 22.5ZM21.2968 15.7031C19.9843 14.4844 18.9999 13.1719 18.9999 8.71875C18.9999 5.01562 15.9999 1.96875 12.2499 1.59375V0.75C12.2499 0.375 11.8749 0 11.4999 0C11.0781 0 10.7499 0.375 10.7499 0.75V1.59375C6.95307 1.96875 3.95307 5.01562 3.95307 8.71875C3.95307 13.1719 2.9687 14.4844 1.6562 15.7031C0.999946 16.3594 0.812446 17.2969 1.14057 18.1406C1.4687 18.9844 2.31245 19.5 3.24995 19.5H19.7499C20.6406 19.5 21.4843 18.9844 21.8124 18.1406C22.1406 17.2969 21.9531 16.3594 21.2968 15.7031ZM19.7499 18H3.24995C2.54682 18 2.2187 17.25 2.68745 16.7812C4.32807 15.2344 5.45307 13.5 5.45307 8.71875C5.45307 5.57812 8.17182 3 11.4999 3C14.7812 3 17.4999 5.57812 17.4999 8.71875C17.4999 13.5 18.6249 15.2344 20.2656 16.7812C20.7343 17.25 20.4062 18 19.7499 18Z" fill="white"/>
</svg>
