<svg width="16" height="16" viewBox="0 0 16 16" fill="none" xmlns="http://www.w3.org/2000/svg">
<path d="M11.0003 4.00033V11.667C11.0003 12.3742 10.7194 13.0525 10.2193 13.5526C9.71918 14.0527 9.0409 14.3337 8.33366 14.3337C7.62642 14.3337 6.94814 14.0527 6.44804 13.5526C5.94794 13.0525 5.66699 12.3742 5.66699 11.667V3.33366C5.66699 2.89163 5.84259 2.46771 6.15515 2.15515C6.46771 1.84259 6.89163 1.66699 7.33366 1.66699C7.77569 1.66699 8.19961 1.84259 8.51217 2.15515C8.82473 2.46771 9.00033 2.89163 9.00033 3.33366V10.3337C9.00033 10.5105 8.93009 10.68 8.80506 10.8051C8.68004 10.9301 8.51047 11.0003 8.33366 11.0003C8.15685 11.0003 7.98728 10.9301 7.86225 10.8051C7.73723 10.68 7.66699 10.5105 7.66699 10.3337V4.00033H6.66699V10.3337C6.66699 10.7757 6.84259 11.1996 7.15515 11.5122C7.46771 11.8247 7.89163 12.0003 8.33366 12.0003C8.77569 12.0003 9.19961 11.8247 9.51217 11.5122C9.82473 11.1996 10.0003 10.7757 10.0003 10.3337V3.33366C10.0003 2.62641 9.71937 1.94814 9.21928 1.44804C8.71918 0.947944 8.0409 0.666992 7.33366 0.666992C6.62641 0.666992 5.94814 0.947944 5.44804 1.44804C4.94794 1.94814 4.66699 2.62641 4.66699 3.33366V11.667C4.66699 12.6395 5.0533 13.5721 5.74093 14.2597C6.42857 14.9473 7.3612 15.3337 8.33366 15.3337C9.30612 15.3337 10.2388 14.9473 10.9264 14.2597C11.614 13.5721 12.0003 12.6395 12.0003 11.667V4.00033H11.0003Z" fill="#FFC933"/>
</svg>
