<svg width="14" height="14" viewBox="0 0 14 14" fill="none" xmlns="http://www.w3.org/2000/svg">
<g clip-path="url(#clip0_230_2223)">
<path d="M8.46792 6.97809L12.9812 2.50861L13.9014 1.58842C14.0329 1.45696 14.0329 1.23787 13.9014 1.0626L12.9374 0.0985915C12.7621 -0.0328638 12.543 -0.0328638 12.4116 0.0985915L7.02191 5.53208L1.58842 0.0985915C1.45696 -0.0328638 1.23787 -0.0328638 1.0626 0.0985915L0.0985915 1.0626C-0.0328638 1.23787 -0.0328638 1.45696 0.0985915 1.58842L5.53208 6.97809L0.0985915 12.4116C-0.0328638 12.543 -0.0328638 12.7621 0.0985915 12.9374L1.0626 13.9014C1.23787 14.0329 1.45696 14.0329 1.58842 13.9014L7.02191 8.46792L11.4914 12.9812L12.4116 13.9014C12.543 14.0329 12.7621 14.0329 12.9374 13.9014L13.9014 12.9374C14.0329 12.7621 14.0329 12.543 13.9014 12.4116L8.46792 6.97809Z" fill="#444444"/>
</g>
<defs>
<clipPath id="clip0_230_2223">
<rect width="14" height="14" fill="white"/>
</clipPath>
</defs>
</svg>
