<svg width="19" height="17" viewBox="0 0 19 17" fill="none" xmlns="http://www.w3.org/2000/svg">
<path d="M16.5929 0.304688H2.12404C1.43654 0.304688 1.09279 1.11719 1.59279 1.58594L7.37404 7.36719V13.8047C7.37404 14.0547 7.46779 14.3047 7.68654 14.4297L10.1866 16.1797C10.6866 16.5234 11.3741 16.1797 11.3741 15.5547V7.36719L17.1241 1.58594C17.6241 1.11719 17.2804 0.304688 16.5929 0.304688Z" fill="#0993EC"/>
</svg>
