<svg width="12" height="7" viewBox="0 0 12 7" fill="none" xmlns="http://www.w3.org/2000/svg">
<path d="M5.59961 6.45312C5.81055 6.66406 6.16211 6.66406 6.37305 6.45312L10.9433 1.90625C11.1542 1.67188 11.1542 1.32031 10.9433 1.10938L10.4042 0.570312C10.1933 0.359375 9.8418 0.359375 9.60743 0.570312L5.99805 4.17969L2.36524 0.570312C2.13086 0.359375 1.7793 0.359375 1.56836 0.570312L1.0293 1.10938C0.818359 1.32031 0.818359 1.67188 1.0293 1.90625L5.59961 6.45312Z" fill="#0993EC"/>
</svg>
