<svg width="16" height="17" viewBox="0 0 16 17" fill="none" xmlns="http://www.w3.org/2000/svg">
<path d="M14.5625 2.625L8.5625 0.125C8.375 0.0625 8.1875 0.03125 8 0.03125C7.78125 0.03125 7.59375 0.0625 7.40625 0.125L1.40625 2.625C0.84375 2.875 0.5 3.40625 0.5 4C0.5 10.2188 4.0625 14.5 7.40625 15.9062C7.78125 16.0625 8.1875 16.0625 8.5625 15.9062C11.25 14.7812 15.5 10.9375 15.5 4C15.5 3.40625 15.125 2.875 14.5625 2.625ZM8.1875 14.9688C8.0625 15.0312 7.90625 15.0312 7.78125 14.9688C4.75 13.75 1.5 9.5 1.5 4C1.5 3.8125 1.59375 3.625 1.78125 3.5625L7.78125 1.0625C7.90625 1 8.0625 1 8.1875 1.0625L14.1875 3.5625C14.375 3.625 14.5 3.8125 14.4688 4C14.5 9.5 11.25 13.75 8.1875 14.9688ZM12.4375 4.8125C12.2812 4.6875 12.0625 4.6875 11.9062 4.8125L6.8125 9.875L4.65625 7.71875C4.5 7.5625 4.25 7.5625 4.125 7.71875L3.84375 7.96875C3.6875 8.125 3.6875 8.34375 3.84375 8.5L6.53125 11.2188C6.6875 11.3438 6.90625 11.3438 7.0625 11.2188L12.6875 5.625C12.8438 5.46875 12.8438 5.25 12.6875 5.09375L12.4375 4.8125Z" fill="white"/>
</svg>
