<svg width="14" height="16" viewBox="0 0 14 16" fill="none" xmlns="http://www.w3.org/2000/svg">
<path d="M9.25 13.5H9.75C9.875 13.5 10 13.4062 10 13.25V4.75C10 4.625 9.875 4.5 9.75 4.5H9.25C9.09375 4.5 9 4.625 9 4.75V13.25C9 13.4062 9.09375 13.5 9.25 13.5ZM4.25 13.5H4.75C4.875 13.5 5 13.4062 5 13.25V4.75C5 4.625 4.875 4.5 4.75 4.5H4.25C4.09375 4.5 4 4.625 4 4.75V13.25C4 13.4062 4.09375 13.5 4.25 13.5ZM13.75 2H10.5L9.4375 0.625C9.15625 0.25 8.71875 0 8.25 0H5.75C5.25 0 4.8125 0.25 4.53125 0.625L3.5 2H0.25C0.09375 2 0 2.125 0 2.25V2.75C0 2.90625 0.09375 3 0.25 3H1V14.5C1 15.3438 1.65625 16 2.5 16H11.5C12.3125 16 13 15.3438 13 14.5V3H13.75C13.875 3 14 2.90625 14 2.75V2.25C14 2.125 13.875 2 13.75 2ZM5.34375 1.21875C5.4375 1.09375 5.5625 1.03125 5.75 1H8.25C8.40625 1.03125 8.53125 1.09375 8.625 1.21875L9.25 2H4.75L5.34375 1.21875ZM12 14.5C12 14.7812 11.75 15 11.5 15H2.5C2.21875 15 2 14.7812 2 14.5V3H12V14.5ZM6.75 13.5H7.25C7.375 13.5 7.5 13.4062 7.5 13.25V4.75C7.5 4.625 7.375 4.5 7.25 4.5H6.75C6.59375 4.5 6.5 4.625 6.5 4.75V13.25C6.5 13.4062 6.59375 13.5 6.75 13.5Z" fill="#999999"/>
</svg>
